Lab-4/rca_test.vcd
$date
	Tue Aug 30 14:49:16 2022
$end
$version
	Icarus Verilog
$end
$timescale
	100ps
$end
$scope module tb $end
$var wire 1 ! cout $end
$var wire 4 " o [3:0] $end
$var reg 1 # cin $end
$var reg 1 $ clk $end
$var integer 32 % i [31:0] $end
$var reg 4 & i0 [3:0] $end
$var reg 4 ' i1 [3:0] $end
$var reg 1 ( reset $end
$scope module u0 $end
$var wire 4 ) a [3:0] $end
$var wire 4 * b [3:0] $end
$var wire 3 + c [2:0] $end
$var wire 1 , cin $end
$var wire 1 ! cout $end
$var wire 4 - sum [3:0] $end
$scope module u0 $end
$var wire 1 . a $end
$var wire 1 / b $end
$var wire 1 , cin $end
$var wire 1 0 cout $end
$var wire 1 1 sum $end
$var wire 5 2 t [4:0] $end
$scope module x0 $end
$var wire 1 . i0 $end
$var wire 1 / i1 $end
$var wire 1 3 o4 $end
$upscope $end
$scope module x1 $end
$var wire 1 4 i0 $end
$var wire 1 , i1 $end
$var wire 1 1 o4 $end
$upscope $end
$scope module a0 $end
$var wire 1 . i0 $end
$var wire 1 / i1 $end
$var wire 1 5 o2 $end
$upscope $end
$scope module a1 $end
$var wire 1 . i0 $end
$var wire 1 , i1 $end
$var wire 1 6 o2 $end
$upscope $end
$scope module a2 $end
$var wire 1 / i0 $end
$var wire 1 , i1 $end
$var wire 1 7 o2 $end
$upscope $end
$scope module o0 $end
$var wire 1 8 i0 $end
$var wire 1 9 i1 $end
$var wire 1 : o3 $end
$upscope $end
$scope module o1 $end
$var wire 1 ; i0 $end
$var wire 1 < i1 $end
$var wire 1 0 o3 $end
$upscope $end
$upscope $end
$scope module u1 $end
$var wire 1 = a $end
$var wire 1 > b $end
$var wire 1 ? cin $end
$var wire 1 @ cout $end
$var wire 1 A sum $end
$var wire 5 B t [4:0] $end
$scope module x0 $end
$var wire 1 = i0 $end
$var wire 1 > i1 $end
$var wire 1 C o4 $end
$upscope $end
$scope module x1 $end
$var wire 1 D i0 $end
$var wire 1 ? i1 $end
$var wire 1 A o4 $end
$upscope $end
$scope module a0 $end
$var wire 1 = i0 $end
$var wire 1 > i1 $end
$var wire 1 E o2 $end
$upscope $end
$scope module a1 $end
$var wire 1 = i0 $end
$var wire 1 ? i1 $end
$var wire 1 F o2 $end
$upscope $end
$scope module a2 $end
$var wire 1 > i0 $end
$var wire 1 ? i1 $end
$var wire 1 G o2 $end
$upscope $end
$scope module o0 $end
$var wire 1 H i0 $end
$var wire 1 I i1 $end
$var wire 1 J o3 $end
$upscope $end
$scope module o1 $end
$var wire 1 K i0 $end
$var wire 1 L i1 $end
$var wire 1 @ o3 $end
$upscope $end
$upscope $end
$scope module u2 $end
$var wire 1 M a $end
$var wire 1 N b $end
$var wire 1 O cin $end
$var wire 1 P cout $end
$var wire 1 Q sum $end
$var wire 5 R t [4:0] $end
$scope module x0 $end
$var wire 1 M i0 $end
$var wire 1 N i1 $end
$var wire 1 S o4 $end
$upscope $end
$scope module x1 $end
$var wire 1 T i0 $end
$var wire 1 O i1 $end
$var wire 1 Q o4 $end
$upscope $end
$scope module a0 $end
$var wire 1 M i0 $end
$var wire 1 N i1 $end
$var wire 1 U o2 $end
$upscope $end
$scope module a1 $end
$var wire 1 M i0 $end
$var wire 1 O i1 $end
$var wire 1 V o2 $end
$upscope $end
$scope module a2 $end
$var wire 1 N i0 $end
$var wire 1 O i1 $end
$var wire 1 W o2 $end
$upscope $end
$scope module o0 $end
$var wire 1 X i0 $end
$var wire 1 Y i1 $end
$var wire 1 Z o3 $end
$upscope $end
$scope module o1 $end
$var wire 1 [ i0 $end
$var wire 1 \ i1 $end
$var wire 1 P o3 $end
$upscope $end
$upscope $end
$scope module u3 $end
$var wire 1 ] a $end
$var wire 1 ^ b $end
$var wire 1 _ cin $end
$var wire 1 ! cout $end
$var wire 1 ` sum $end
$var wire 5 a t [4:0] $end
$scope module x0 $end
$var wire 1 ] i0 $end
$var wire 1 ^ i1 $end
$var wire 1 b o4 $end
$upscope $end
$scope module x1 $end
$var wire 1 c i0 $end
$var wire 1 _ i1 $end
$var wire 1 ` o4 $end
$upscope $end
$scope module a0 $end
$var wire 1 ] i0 $end
$var wire 1 ^ i1 $end
$var wire 1 d o2 $end
$upscope $end
$scope module a1 $end
$var wire 1 ] i0 $end
$var wire 1 _ i1 $end
$var wire 1 e o2 $end
$upscope $end
$scope module a2 $end
$var wire 1 ^ i0 $end
$var wire 1 _ i1 $end
$var wire 1 f o2 $end
$upscope $end
$scope module o0 $end
$var wire 1 g i0 $end
$var wire 1 h i1 $end
$var wire 1 i o3 $end
$upscope $end
$scope module o1 $end
$var wire 1 j i0 $end
$var wire 1 k i1 $end
$var wire 1 ! o3 $end
$upscope $end
$upscope $end
$upscope $end
$upscope $end
$enddefinitions $end
#0
$dumpvars
0k
0j
0i
0h
0g
0f
0e
0d
0c
0b
b0 a
0`
0_
0^
0]
0\
0[
0Z
0Y
0X
0W
0V
0U
0T
0S
b0 R
0Q
0P
0O
0N
0M
0L
0K
0J
0I
0H
0G
0F
0E
0D
0C
b0 B
0A
0@
0?
0>
0=
0<
0;
0:
09
08
07
06
05
04
03
b0 2
01
00
0/
0.
b0 -
0,
b0 +
b0 *
b0 )
1(
b0 '
b0 &
b0 %
0$
0#
b0 "
0!
$end
#50
1$
#100
0$
#125
0(
#150
1$
#160
b1 %
#200
0$
#250
1$
#260
11
b1 "
b1 -
b10 %
1#
1,
#300
0$
#350
1$
#360
1A
1?
10
b1 +
1<
1:
18
15
b10010 2
1.
1/
01
b10 "
b10 -
b11 %
b1 &
b1 )
b1 '
b1 *
0#
0,
#400
0$
#450
1$
#460
19
1;
11
b11 "
b11 -
16
17
b11110 2
b100 %
1#
1,
#500
0$
#550
1$
#560
0A
0?
00
1Q
0<
1L
1O
0:
1J
1@
b10 +
0I
08
1H
0K
0F
05
1E
0G
b10010 B
09
0;
0.
1=
0/
1>
01
b100 "
b100 -
06
07
b0 2
b101 %
b10 &
b10 )
b10 '
b10 *
0#
0,
#600
0$
#650
1$
#660
1!
1k
11
b101 "
b101 -
1i
14
1g
13
b1 2
1d
b10010 a
1]
1/
1^
b110 %
b1010 &
b1010 )
b1011 '
b1011 *
#700
0$
#750
1$
#760
1I
1K
1A
1F
1G
b11110 B
1?
10
b11 +
1;
01
b110 "
b110 -
17
b1001 2
b111 %
1#
1,
#800
0$
#850
1$
#860
0Q
0O
1h
1j
0@
1`
1e
1f
b11110 a
0L
1\
1_
0A
0J
1Z
1P
0?
0I
0Y
0H
0K
1X
0[
00
b100 +
0F
0V
0E
0G
b0 B
1U
0W
b10010 R
0;
0=
1M
0>
1N
11
b1001 "
b1001 -
07
b1 2
b1000 %
b1100 &
b1100 )
b1101 '
b1101 *
0#
0,
#900
0$
#950
1$
#960
1Y
1[
1Q
b1101 "
b1101 -
1V
1W
b11110 R
1O
1@
b110 +
1L
1J
1H
1E
b10010 B
1.
1=
0/
1>
b1001 %
b1111 &
b1111 )
b1110 '
b1110 *
#1000
0$
#1050
1$
#1060
1I
1K
1A
1F
1G
b11110 B
1?
10
b111 +
1<
1:
19
01
b1110 "
b1110 -
16
b10101 2
b1010 %
1#
1,
